Point(1) = {1, 0, 0, 1.0};
Point(2) = {0, 1, 0, 1.0};
Point(3) = {0, 0, 1, 1.0};
Point(4) = {-1, 0, 0, 1.0};
Point(5) = {0, -1, 0, 1.0};
Point(6) = {0, 0, -1, 1.0};
Point(7) = {0, 0, 0, 1.0};
Circle(1) = {4, 7, 2};
Circle(2) = {2, 7, 1};
Circle(3) = {1, 7, 5};
Circle(4) = {5, 7, 4};
Circle(5) = {6, 7, 5};
Circle(6) = {6, 7, 1};
Circle(7) = {6, 7, 2};
Circle(8) = {6, 7, 4};
Circle(9) = {3, 7, 4};
Circle(10) = {3, 7, 2};
Circle(11) = {3, 7, 1};
Circle(12) = {3, 7, 5};
Line Loop(13) = {9, -4, -12};
Ruled Surface(14) = {13};
Line Loop(15) = {11, 3, -12};
Ruled Surface(16) = {15};
Line Loop(17) = {10, 2, -11};
Ruled Surface(18) = {17};
Line Loop(19) = {1, -10, 9};
Ruled Surface(20) = {19};
Line Loop(21) = {4, -8, 5};
Ruled Surface(22) = {21};
Line Loop(23) = {5, -3, -6};
Ruled Surface(24) = {23};
Line Loop(25) = {2, -6, 7};
Ruled Surface(26) = {25};
Line Loop(27) = {1, -7, 8};
Ruled Surface(28) = {27};
Surface Loop(29) = {16, 18, 20, 28, 26, 24, 22, 14};
Volume(30) = {29};
